<?xml version="1.0" encoding="UTF-8" standalone="no"?>
<svg
   xmlns:dc="http://purl.org/dc/elements/1.1/"
   xmlns:cc="http://creativecommons.org/ns#"
   xmlns:rdf="http://www.w3.org/1999/02/22-rdf-syntax-ns#"
   xmlns:svg="http://www.w3.org/2000/svg"
   xmlns="http://www.w3.org/2000/svg"
   xmlns:sodipodi="http://sodipodi.sourceforge.net/DTD/sodipodi-0.dtd"
   xmlns:inkscape="http://www.inkscape.org/namespaces/inkscape"
   fill-opacity="1"
   color-rendering="auto"
   color-interpolation="auto"
   stroke="black"
   text-rendering="auto"
   stroke-linecap="square"
   width="590"
   stroke-miterlimit="10"
   stroke-opacity="1"
   shape-rendering="auto"
   fill="black"
   stroke-dasharray="none"
   font-weight="normal"
   stroke-width="1"
   viewBox="120 100 590 360"
   height="360"
   font-family="'Dialog'"
   font-style="normal"
   stroke-linejoin="miter"
   font-size="12"
   stroke-dashoffset="0"
   image-rendering="auto"
   id="svg2"
   version="1.1"
   inkscape:version="0.48.4 r9939"
   sodipodi:docname="Aggregator Models.svg">
  <metadata
     id="metadata287">
    <rdf:RDF>
      <cc:Work
         rdf:about="">
        <dc:format>image/svg+xml</dc:format>
        <dc:type
           rdf:resource="http://purl.org/dc/dcmitype/StillImage" />
      </cc:Work>
    </rdf:RDF>
  </metadata>
  <sodipodi:namedview
     pagecolor="#ffffff"
     bordercolor="#666666"
     borderopacity="1"
     objecttolerance="10"
     gridtolerance="10"
     guidetolerance="10"
     inkscape:pageopacity="0"
     inkscape:pageshadow="2"
     inkscape:window-width="1161"
     inkscape:window-height="656"
     id="namedview285"
     showgrid="false"
     inkscape:zoom="1.4765348"
     inkscape:cx="297.6724"
     inkscape:cy="173.87943"
     inkscape:window-x="0"
     inkscape:window-y="27"
     inkscape:window-maximized="0"
     inkscape:current-layer="g135" />
  <!--Generated by the Batik Graphics2D SVG Generator-->
  <defs
     id="genericDefs" />
  <g
     id="g5">
    <defs
       id="defs1">
      <clipPath
         clipPathUnits="userSpaceOnUse"
         id="clipPath1">
        <path
           d="M0 0 L2147483647 0 L2147483647 2147483647 L0 2147483647 L0 0 Z"
           id="path9" />
      </clipPath>
      <clipPath
         clipPathUnits="userSpaceOnUse"
         id="clipPath2">
        <path
           d="M0 0 L0 50 L130 50 L130 0 Z"
           id="path12" />
      </clipPath>
      <clipPath
         clipPathUnits="userSpaceOnUse"
         id="clipPath3">
        <path
           d="M-0.5 -0.5 L-0.5 49.5 L129.5 49.5 L129.5 -0.5 Z"
           id="path15" />
      </clipPath>
      <clipPath
         clipPathUnits="userSpaceOnUse"
         id="clipPath4">
        <path
           d="M0 0 L0 100 L130 100 L130 0 Z"
           id="path18" />
      </clipPath>
      <clipPath
         clipPathUnits="userSpaceOnUse"
         id="clipPath5">
        <path
           d="M-0.5 -0.5 L-0.5 99.5 L129.5 99.5 L129.5 -0.5 Z"
           id="path21" />
      </clipPath>
      <clipPath
         clipPathUnits="userSpaceOnUse"
         id="clipPath6">
        <path
           d="M0 0 L0 80 L170 80 L170 0 Z"
           id="path24" />
      </clipPath>
      <clipPath
         clipPathUnits="userSpaceOnUse"
         id="clipPath7">
        <path
           d="M-0.5 -0.5 L-0.5 79.5 L169.5 79.5 L169.5 -0.5 Z"
           id="path27" />
      </clipPath>
      <clipPath
         clipPathUnits="userSpaceOnUse"
         id="clipPath8">
        <path
           d="M0 0 L0 100 L150 100 L150 0 Z"
           id="path30" />
      </clipPath>
      <clipPath
         clipPathUnits="userSpaceOnUse"
         id="clipPath9">
        <path
           d="M-0.5 -0.5 L-0.5 99.5 L149.5 99.5 L149.5 -0.5 Z"
           id="path33" />
      </clipPath>
      <clipPath
         clipPathUnits="userSpaceOnUse"
         id="clipPath10">
        <path
           d="M0 0 L0 100 L50 100 L50 0 Z"
           id="path36" />
      </clipPath>
      <clipPath
         clipPathUnits="userSpaceOnUse"
         id="clipPath11">
        <path
           d="M-0.5 -0.5 L-0.5 99.5 L49.5 99.5 L49.5 -0.5 Z"
           id="path39" />
      </clipPath>
      <clipPath
         clipPathUnits="userSpaceOnUse"
         id="clipPath12">
        <path
           d="M0 0 L0 70 L60 70 L60 0 Z"
           id="path42" />
      </clipPath>
      <clipPath
         clipPathUnits="userSpaceOnUse"
         id="clipPath13">
        <path
           d="M-0.5 -0.5 L-0.5 69.5 L59.5 69.5 L59.5 -0.5 Z"
           id="path45" />
      </clipPath>
      <clipPath
         clipPathUnits="userSpaceOnUse"
         id="clipPath14">
        <path
           d="M0 0 L0 80 L140 80 L140 0 Z"
           id="path48" />
      </clipPath>
      <clipPath
         clipPathUnits="userSpaceOnUse"
         id="clipPath15">
        <path
           d="M-0.5 -0.5 L-0.5 79.5 L139.5 79.5 L139.5 -0.5 Z"
           id="path51" />
      </clipPath>
      <clipPath
         clipPathUnits="userSpaceOnUse"
         id="clipPath16">
        <path
           d="M0 0 L0 70 L170 70 L170 0 Z"
           id="path54" />
      </clipPath>
      <clipPath
         clipPathUnits="userSpaceOnUse"
         id="clipPath17">
        <path
           d="M-0.5 -0.5 L-0.5 69.5 L169.5 69.5 L169.5 -0.5 Z"
           id="path57" />
      </clipPath>
      <clipPath
         clipPathUnits="userSpaceOnUse"
         id="clipPath18">
        <path
           d="M0 0 L0 90 L170 90 L170 0 Z"
           id="path60" />
      </clipPath>
      <clipPath
         clipPathUnits="userSpaceOnUse"
         id="clipPath19">
        <path
           d="M-0.5 -0.5 L-0.5 89.5 L169.5 89.5 L169.5 -0.5 Z"
           id="path63" />
      </clipPath>
    </defs>
    <g
       font-family="sans-serif"
       font-size="14"
       transform="translate(280.5,130.5)"
       id="g65">
      <line
         y2="30"
         fill="none"
         x1="30"
         clip-path="url(#clipPath3)"
         x2="70"
         y1="30"
         id="line67" />
      <line
         y2="30"
         fill="none"
         x1="70"
         clip-path="url(#clipPath3)"
         x2="110"
         y1="30"
         id="line69" />
      <text
         x="43"
         xml:space="preserve"
         y="47"
         clip-path="url(#clipPath3)"
         stroke="none"
         id="text71">*</text>
      <text
         x="90"
         xml:space="preserve"
         y="45"
         clip-path="url(#clipPath3)"
         stroke="none"
         id="text73">1</text>
    </g>
    <g
       font-family="sans-serif"
       font-size="14"
       transform="translate(500.5,280.5)"
       id="g75">
      <line
         y2="60"
         fill="none"
         x1="30"
         clip-path="url(#clipPath5)"
         x2="70"
         y1="60"
         id="line79" />
      <line
         y2="60"
         fill="none"
         x1="70"
         clip-path="url(#clipPath5)"
         x2="110"
         y1="60"
         id="line81" />
      <line
         y2="80"
         fill="none"
         x1="110"
         clip-path="url(#clipPath5)"
         x2="110"
         y1="60"
         id="line83" />
      <line
         y2="42"
         fill="none"
         x1="30"
         clip-path="url(#clipPath5)"
         x2="36"
         y1="30"
         id="line85" />
      <line
         y2="42"
         fill="none"
         x1="30"
         clip-path="url(#clipPath5)"
         x2="24"
         y1="30"
         id="line87" />
    </g>
    <g
       font-size="14"
       transform="translate(500.5,280.5)"
       fill-opacity="0"
       fill="rgb(0,0,0)"
       font-family="sans-serif"
       stroke="rgb(0,0,0)"
       stroke-opacity="0"
       id="g89">
      <polygon
         points=" 30 30 36 42 30 54 24 42"
         clip-path="url(#clipPath5)"
         stroke="none"
         id="polygon91" />
    </g>
    <g
       font-family="sans-serif"
       font-size="14"
       transform="translate(500.5,280.5)"
       id="g93">
      <polygon
         fill="none"
         points=" 30 30 36 42 30 54 24 42"
         clip-path="url(#clipPath5)"
         id="polygon95" />
      <text
         x="27"
         xml:space="preserve"
         y="63"
         clip-path="url(#clipPath5)"
         id="text97"
         transform="translate(7.1112443,-5.2487756)"
         style="stroke:none">1</text>
      <text
         x="107"
         xml:space="preserve"
         y="76"
         clip-path="url(#clipPath5)"
         id="text99"
         transform="translate(5.2678571,0.4788961)"
         style="stroke:none">1</text>
    </g>
    <g
       font-size="14"
       transform="translate(520.5,360.5)"
       fill-opacity="0"
       fill="rgb(0,0,0)"
       font-family="sans-serif"
       stroke="rgb(0,0,0)"
       stroke-opacity="0"
       id="g101">
      <rect
         x="0"
         y="0"
         clip-path="url(#clipPath7)"
         width="169"
         opacity="0"
         height="79"
         stroke="none"
         id="rect103" />
    </g>
    <g
       font-family="sans-serif"
       font-size="14"
       transform="translate(520.5,360.5)"
       id="g105">
      <rect
         fill="none"
         x="0"
         width="169"
         height="79"
         y="0"
         clip-path="url(#clipPath7)"
         id="rect107" />
      <text
         x="63"
         xml:space="preserve"
         y="17"
         clip-path="url(#clipPath7)"
         stroke="none"
         id="text109">Action</text>
      <line
         y2="20"
         fill="none"
         x1="0"
         clip-path="url(#clipPath7)"
         x2="169"
         y1="20"
         id="line111" />
      <text
         x="7"
         xml:space="preserve"
         y="37"
         clip-path="url(#clipPath7)"
         stroke="none"
         id="text113">type:str</text>
      <text
         x="7"
         xml:space="preserve"
         y="54"
         clip-path="url(#clipPath7)"
         stroke="none"
         id="text115">parameters:list&lt;str&gt;</text>
    </g>
    <g
       font-family="sans-serif"
       font-size="14"
       transform="translate(400.5,280.5)"
       id="g117">
      <path
         style="fill:none"
         clip-path="url(#clipPath9)"
         d="M 130,53.534832 130,60"
         id="line119"
         inkscape:connector-curvature="0"
         sodipodi:nodetypes="cc" />
      <line
         y2="60"
         fill="none"
         x1="130"
         clip-path="url(#clipPath9)"
         x2="80"
         y1="60"
         id="line121" />
      <line
         y2="60"
         fill="none"
         x1="80"
         clip-path="url(#clipPath9)"
         x2="30"
         y1="60"
         id="line123" />
      <line
         y2="80"
         fill="none"
         x1="30"
         clip-path="url(#clipPath9)"
         x2="30"
         y1="60"
         id="line125" />
      <line
         y2="42"
         fill="none"
         x1="130"
         clip-path="url(#clipPath9)"
         x2="136"
         y1="30"
         id="line127" />
      <line
         y2="42"
         fill="none"
         x1="130"
         clip-path="url(#clipPath9)"
         x2="124"
         y1="30"
         id="line129" />
    </g>
    <g
       font-size="14"
       transform="translate(400.5,280.5)"
       fill-opacity="0"
       fill="rgb(0,0,0)"
       font-family="sans-serif"
       stroke="rgb(0,0,0)"
       stroke-opacity="0"
       id="g131">
      <polygon
         points=" 130 30 136 42 130 54 124 42"
         clip-path="url(#clipPath9)"
         stroke="none"
         id="polygon133" />
    </g>
    <g
       font-family="sans-serif"
       font-size="14"
       transform="translate(400.5,280.5)"
       id="g135">
      <polygon
         fill="none"
         points=" 130 30 136 42 130 54 124 42"
         clip-path="url(#clipPath9)"
         id="polygon137" />
      <text
         x="127"
         xml:space="preserve"
         y="63"
         clip-path="url(#clipPath9)"
         id="text139"
         transform="translate(-11.005497,-5.5874063)"
         style="stroke:none">1</text>
      <text
         x="27"
         xml:space="preserve"
         y="80"
         clip-path="url(#clipPath9)"
         id="text141"
         transform="translate(2.0317841,-3.3863068)"
         style="stroke:none"> *</text>
    </g>
    <g
       font-size="14"
       transform="translate(190.5,180.5)"
       id="g143"
       font-family="sans-serif">
      <line
         y2="80"
         x1="30"
         clip-path="url(#clipPath11)"
         x2="30"
         y1="55"
         id="line147"
         fill="none" />
      <line
         y2="42"
         x1="30"
         clip-path="url(#clipPath11)"
         x2="36"
         y1="30"
         id="line149"
         fill="none" />
      <line
         y2="42"
         x1="30"
         clip-path="url(#clipPath11)"
         x2="24"
         y1="30"
         id="line151"
         fill="none" />
    </g>
    <g
       font-size="14"
       transform="translate(190.5,180.5)"
       fill-opacity="0"
       fill="rgb(0,0,0)"
       font-family="sans-serif"
       stroke="rgb(0,0,0)"
       stroke-opacity="0"
       id="g153">
      <polygon
         points=" 30 30 36 42 30 54 24 42"
         clip-path="url(#clipPath11)"
         stroke="none"
         id="polygon155" />
    </g>
    <g
       font-family="sans-serif"
       font-size="14"
       transform="translate(190.5,180.5)"
       id="g157">
      <polygon
         points=" 30 30 36 42 30 54 24 42"
         clip-path="url(#clipPath11)"
         id="polygon159"
         fill="none" />
      <text
         x="27"
         xml:space="preserve"
         y="63"
         clip-path="url(#clipPath11)"
         id="text161"
         transform="translate(0,-18.676948)"
         style="stroke:none">  1</text>
      <text
         x="27"
         xml:space="preserve"
         y="80"
         clip-path="url(#clipPath11)"
         stroke="none"
         id="text163">  *</text>
    </g>
    <g
       font-family="sans-serif"
       font-size="14"
       transform="translate(170.5,310.5)"
       id="g165">
      <line
         y2="40"
         fill="none"
         x1="30"
         clip-path="url(#clipPath13)"
         x2="35"
         y1="50"
         id="line167" />
      <line
         y2="30"
         fill="none"
         x1="35"
         clip-path="url(#clipPath13)"
         x2="40"
         y1="40"
         id="line169" />
    </g>
    <g
       fill="rgb(204,204,204)"
       font-size="14"
       font-family="sans-serif"
       transform="translate(140.5,360.5)"
       stroke="rgb(204,204,204)"
       id="g171">
      <polygon
         clip-path="url(#clipPath15)"
         opacity="0.5"
         points=" 0 0 126 0 126 0 139 14 139 14 139 79 139 79 0 79 0 79 0 0"
         stroke="none"
         id="polygon173" />
      <text
         fill="black"
         x="7"
         xml:space="preserve"
         y="17"
         clip-path="url(#clipPath15)"
         stroke="none"
         id="text175">La propiedad</text>
      <text
         fill="black"
         x="7"
         xml:space="preserve"
         y="34"
         clip-path="url(#clipPath15)"
         stroke="none"
         id="text177">data puede ser de</text>
      <text
         fill="black"
         x="7"
         xml:space="preserve"
         y="51"
         clip-path="url(#clipPath15)"
         stroke="none"
         id="text179">cualquier tipo</text>
      <text
         fill="black"
         x="7"
         xml:space="preserve"
         y="68"
         clip-path="url(#clipPath15)"
         stroke="none"
         id="text181">válido en JSON.</text>
      <line
         clip-path="url(#clipPath15)"
         fill="none"
         x1="0"
         x2="126"
         y1="0"
         y2="0"
         stroke="black"
         id="line183" />
      <line
         clip-path="url(#clipPath15)"
         fill="none"
         x1="126"
         x2="139"
         y1="0"
         y2="14"
         stroke="black"
         id="line185" />
      <line
         clip-path="url(#clipPath15)"
         fill="none"
         x1="139"
         x2="139"
         y1="14"
         y2="79"
         stroke="black"
         id="line187" />
      <line
         clip-path="url(#clipPath15)"
         fill="none"
         x1="139"
         x2="0"
         y1="79"
         y2="79"
         stroke="black"
         id="line189" />
      <line
         clip-path="url(#clipPath15)"
         fill="none"
         x1="0"
         x2="0"
         y1="79"
         y2="0"
         stroke="black"
         id="line191" />
      <line
         clip-path="url(#clipPath15)"
         fill="none"
         x1="126"
         x2="126"
         y1="0"
         y2="14"
         stroke="black"
         id="line193" />
      <line
         clip-path="url(#clipPath15)"
         fill="none"
         x1="126"
         x2="139"
         y1="14"
         y2="14"
         stroke="black"
         id="line195" />
    </g>
    <g
       font-size="14"
       transform="translate(340.5,360.5)"
       fill-opacity="0"
       fill="rgb(0,0,0)"
       font-family="sans-serif"
       stroke="rgb(0,0,0)"
       stroke-opacity="0"
       id="g197">
      <rect
         x="0"
         y="0"
         clip-path="url(#clipPath7)"
         width="169"
         opacity="0"
         height="79"
         stroke="none"
         id="rect199" />
    </g>
    <g
       font-size="14"
       transform="translate(340.5,360.5)"
       id="g201"
       font-family="sans-serif">
      <rect
         x="0"
         width="169"
         height="79"
         y="0"
         clip-path="url(#clipPath7)"
         id="rect203"
         fill="none" />
      <text
         x="60"
         xml:space="preserve"
         y="17"
         clip-path="url(#clipPath7)"
         id="text205"
         stroke="none">Criteria</text>
      <line
         y2="20"
         x1="0"
         clip-path="url(#clipPath7)"
         x2="169"
         y1="20"
         id="line207"
         fill="none" />
      <text
         x="7"
         xml:space="preserve"
         y="37"
         clip-path="url(#clipPath7)"
         id="text209"
         stroke="none">path: str</text>
      <text
         x="7"
         xml:space="preserve"
         y="54"
         clip-path="url(#clipPath7)"
         id="text211"
         stroke="none">operator: enum</text>
      <text
         x="7"
         xml:space="preserve"
         y="71"
         clip-path="url(#clipPath7)"
         id="text213"
         stroke="none">value: str</text>
    </g>
    <g
       font-size="14"
       transform="translate(440.5,240.5)"
       fill-opacity="0"
       fill="rgb(0,0,0)"
       font-family="sans-serif"
       stroke="rgb(0,0,0)"
       stroke-opacity="0"
       id="g215">
      <rect
         x="0"
         y="0"
         clip-path="url(#clipPath17)"
         width="169"
         opacity="0"
         height="69"
         stroke="none"
         id="rect217" />
    </g>
    <g
       font-family="sans-serif"
       font-size="14"
       transform="translate(440.5,240.5)"
       id="g219">
      <rect
         fill="none"
         x="0"
         width="169"
         height="69"
         y="0"
         clip-path="url(#clipPath17)"
         id="rect221" />
      <text
         x="64"
         xml:space="preserve"
         y="17"
         clip-path="url(#clipPath17)"
         stroke="none"
         id="text223">Alarm</text>
      <line
         y2="20"
         fill="none"
         x1="0"
         clip-path="url(#clipPath17)"
         x2="169"
         y1="20"
         id="line225" />
      <text
         x="7"
         xml:space="preserve"
         y="37"
         clip-path="url(#clipPath17)"
         stroke="none"
         id="text227">criteria: list&lt;Criteria&gt;</text>
      <text
         x="7"
         xml:space="preserve"
         y="54"
         clip-path="url(#clipPath17)"
         stroke="none"
         id="text229">action: Action</text>
    </g>
    <g
       font-size="14"
       transform="translate(390.5,120.5)"
       fill-opacity="0"
       fill="rgb(0,0,0)"
       font-family="sans-serif"
       stroke="rgb(0,0,0)"
       stroke-opacity="0"
       id="g231">
      <rect
         x="0"
         y="0"
         clip-path="url(#clipPath7)"
         width="169"
         opacity="0"
         height="79"
         stroke="none"
         id="rect233" />
    </g>
    <g
       font-family="sans-serif"
       font-size="14"
       transform="translate(390.5,120.5)"
       id="g235">
      <rect
         fill="none"
         x="0"
         width="169"
         height="79"
         y="0"
         clip-path="url(#clipPath7)"
         id="rect237" />
      <text
         x="67"
         xml:space="preserve"
         y="17"
         clip-path="url(#clipPath7)"
         stroke="none"
         id="text239">Node</text>
      <line
         y2="20"
         fill="none"
         x1="0"
         clip-path="url(#clipPath7)"
         x2="169"
         y1="20"
         id="line241" />
      <text
         x="7"
         xml:space="preserve"
         y="37"
         clip-path="url(#clipPath7)"
         text-decoration="underline"
         stroke="none"
         id="text243">name: str</text>
      <text
         x="7"
         xml:space="preserve"
         y="54"
         clip-path="url(#clipPath7)"
         stroke="none"
         id="text245">updated_at: datetime</text>
      <text
         x="7"
         xml:space="preserve"
         y="71"
         clip-path="url(#clipPath7)"
         stroke="none"
         id="text247">status: dict</text>
    </g>
    <g
       font-size="14"
       transform="translate(140.5,120.5)"
       fill-opacity="0"
       fill="rgb(0,0,0)"
       font-family="sans-serif"
       stroke="rgb(0,0,0)"
       stroke-opacity="0"
       id="g249">
      <rect
         x="0"
         y="0"
         clip-path="url(#clipPath19)"
         width="169"
         opacity="0"
         height="89"
         stroke="none"
         id="rect251" />
    </g>
    <g
       font-family="sans-serif"
       font-size="14"
       transform="translate(140.5,120.5)"
       id="g253">
      <rect
         fill="none"
         x="0"
         width="169"
         height="89"
         y="0"
         clip-path="url(#clipPath19)"
         id="rect255" />
      <text
         x="61"
         xml:space="preserve"
         y="17"
         clip-path="url(#clipPath19)"
         stroke="none"
         id="text257">Record</text>
      <line
         y2="20"
         fill="none"
         x1="0"
         clip-path="url(#clipPath19)"
         x2="169"
         y1="20"
         id="line259" />
      <text
         x="7"
         xml:space="preserve"
         y="37"
         clip-path="url(#clipPath19)"
         stroke="none"
         id="text261">created_at: datetime</text>
      <text
         x="7"
         xml:space="preserve"
         y="54"
         clip-path="url(#clipPath19)"
         stroke="none"
         id="text263">name: str</text>
      <text
         x="7"
         xml:space="preserve"
         y="71"
         clip-path="url(#clipPath19)"
         stroke="none"
         id="text265">results: list&lt;Result&gt;</text>
    </g>
    <g
       font-size="14"
       transform="translate(140.5,260.5)"
       fill-opacity="0"
       fill="rgb(0,0,0)"
       font-family="sans-serif"
       stroke="rgb(0,0,0)"
       stroke-opacity="0"
       id="g267">
      <rect
         x="0"
         y="0"
         clip-path="url(#clipPath7)"
         width="169"
         opacity="0"
         height="79"
         stroke="none"
         id="rect269" />
    </g>
    <g
       font-family="sans-serif"
       font-size="14"
       transform="translate(140.5,260.5)"
       id="g271">
      <rect
         fill="none"
         x="0"
         width="169"
         height="79"
         y="0"
         clip-path="url(#clipPath7)"
         id="rect273" />
      <text
         x="63"
         xml:space="preserve"
         y="17"
         clip-path="url(#clipPath7)"
         stroke="none"
         id="text275">Result</text>
      <line
         y2="20"
         fill="none"
         x1="0"
         clip-path="url(#clipPath7)"
         x2="169"
         y1="20"
         id="line277" />
      <text
         x="7"
         xml:space="preserve"
         y="37"
         clip-path="url(#clipPath7)"
         stroke="none"
         id="text279">name: str</text>
      <text
         x="7"
         xml:space="preserve"
         y="54"
         clip-path="url(#clipPath7)"
         stroke="none"
         id="text281">path: str</text>
      <text
         x="7"
         xml:space="preserve"
         y="71"
         clip-path="url(#clipPath7)"
         stroke="none"
         id="text283">data</text>
    </g>
  </g>
</svg>
