<?xml version="1.0" encoding="UTF-8"?>
<!DOCTYPE svg PUBLIC '-//W3C//DTD SVG 1.0//EN'
          'http://www.w3.org/TR/2001/REC-SVG-20010904/DTD/svg10.dtd'>
<svg fill-opacity="1" xmlns:xlink="http://www.w3.org/1999/xlink" color-rendering="auto" color-interpolation="auto" stroke="black" text-rendering="auto" stroke-linecap="square" width="670" stroke-miterlimit="10" stroke-opacity="1" shape-rendering="auto" fill="black" stroke-dasharray="none" font-weight="normal" stroke-width="1" viewBox="270 120 670 540" height="540" xmlns="http://www.w3.org/2000/svg" font-family="&apos;Dialog&apos;" font-style="normal" stroke-linejoin="miter" font-size="12" stroke-dashoffset="0" image-rendering="auto"
><!--Generated by the Batik Graphics2D SVG Generator--><defs id="genericDefs"
  /><g
  ><defs id="defs1"
    ><clipPath clipPathUnits="userSpaceOnUse" id="clipPath1"
      ><path d="M0 0 L2147483647 0 L2147483647 2147483647 L0 2147483647 L0 0 Z"
      /></clipPath
      ><clipPath clipPathUnits="userSpaceOnUse" id="clipPath2"
      ><path d="M0 0 L0 110 L50 110 L50 0 Z"
      /></clipPath
      ><clipPath clipPathUnits="userSpaceOnUse" id="clipPath3"
      ><path d="M-0.5 -0.5 L-0.5 109.5 L49.5 109.5 L49.5 -0.5 Z"
      /></clipPath
      ><clipPath clipPathUnits="userSpaceOnUse" id="clipPath4"
      ><path d="M0 0 L0 140 L150 140 L150 0 Z"
      /></clipPath
      ><clipPath clipPathUnits="userSpaceOnUse" id="clipPath5"
      ><path d="M-0.5 -0.5 L-0.5 139.5 L149.5 139.5 L149.5 -0.5 Z"
      /></clipPath
      ><clipPath clipPathUnits="userSpaceOnUse" id="clipPath6"
      ><path d="M0 0 L0 60 L120 60 L120 0 Z"
      /></clipPath
      ><clipPath clipPathUnits="userSpaceOnUse" id="clipPath7"
      ><path d="M-0.5 -0.5 L-0.5 59.5 L119.5 59.5 L119.5 -0.5 Z"
      /></clipPath
      ><clipPath clipPathUnits="userSpaceOnUse" id="clipPath8"
      ><path d="M0 0 L0 130 L100 130 L100 0 Z"
      /></clipPath
      ><clipPath clipPathUnits="userSpaceOnUse" id="clipPath9"
      ><path d="M-0.5 -0.5 L-0.5 129.5 L99.5 129.5 L99.5 -0.5 Z"
      /></clipPath
      ><clipPath clipPathUnits="userSpaceOnUse" id="clipPath10"
      ><path d="M0 0 L0 210 L370 210 L370 0 Z"
      /></clipPath
      ><clipPath clipPathUnits="userSpaceOnUse" id="clipPath11"
      ><path d="M-0.5 -0.5 L-0.5 209.5 L369.5 209.5 L369.5 -0.5 Z"
      /></clipPath
      ><clipPath clipPathUnits="userSpaceOnUse" id="clipPath12"
      ><path d="M0 0 L0 50 L90 50 L90 0 Z"
      /></clipPath
      ><clipPath clipPathUnits="userSpaceOnUse" id="clipPath13"
      ><path d="M-0.5 -0.5 L-0.5 49.5 L89.5 49.5 L89.5 -0.5 Z"
      /></clipPath
      ><clipPath clipPathUnits="userSpaceOnUse" id="clipPath14"
      ><path d="M0 0 L0 140 L100 140 L100 0 Z"
      /></clipPath
      ><clipPath clipPathUnits="userSpaceOnUse" id="clipPath15"
      ><path d="M-0.5 -0.5 L-0.5 139.5 L99.5 139.5 L99.5 -0.5 Z"
      /></clipPath
      ><clipPath clipPathUnits="userSpaceOnUse" id="clipPath16"
      ><path d="M0 0 L0 240 L130 240 L130 0 Z"
      /></clipPath
      ><clipPath clipPathUnits="userSpaceOnUse" id="clipPath17"
      ><path d="M-0.5 -0.5 L-0.5 239.5 L129.5 239.5 L129.5 -0.5 Z"
      /></clipPath
      ><clipPath clipPathUnits="userSpaceOnUse" id="clipPath18"
      ><path d="M0 0 L0 50 L110 50 L110 0 Z"
      /></clipPath
      ><clipPath clipPathUnits="userSpaceOnUse" id="clipPath19"
      ><path d="M-0.5 -0.5 L-0.5 49.5 L109.5 49.5 L109.5 -0.5 Z"
      /></clipPath
      ><clipPath clipPathUnits="userSpaceOnUse" id="clipPath20"
      ><path d="M0 0 L0 120 L220 120 L220 0 Z"
      /></clipPath
      ><clipPath clipPathUnits="userSpaceOnUse" id="clipPath21"
      ><path d="M-0.5 -0.5 L-0.5 119.5 L219.5 119.5 L219.5 -0.5 Z"
      /></clipPath
      ><clipPath clipPathUnits="userSpaceOnUse" id="clipPath22"
      ><path d="M0 0 L0 120 L70 120 L70 0 Z"
      /></clipPath
      ><clipPath clipPathUnits="userSpaceOnUse" id="clipPath23"
      ><path d="M-0.5 -0.5 L-0.5 119.5 L69.5 119.5 L69.5 -0.5 Z"
      /></clipPath
      ><clipPath clipPathUnits="userSpaceOnUse" id="clipPath24"
      ><path d="M0 0 L0 120 L50 120 L50 0 Z"
      /></clipPath
      ><clipPath clipPathUnits="userSpaceOnUse" id="clipPath25"
      ><path d="M-0.5 -0.5 L-0.5 119.5 L49.5 119.5 L49.5 -0.5 Z"
      /></clipPath
      ><clipPath clipPathUnits="userSpaceOnUse" id="clipPath26"
      ><path d="M0 0 L0 110 L230 110 L230 0 Z"
      /></clipPath
      ><clipPath clipPathUnits="userSpaceOnUse" id="clipPath27"
      ><path d="M-0.5 -0.5 L-0.5 109.5 L229.5 109.5 L229.5 -0.5 Z"
      /></clipPath
      ><clipPath clipPathUnits="userSpaceOnUse" id="clipPath28"
      ><path d="M0 0 L0 340 L490 340 L490 0 Z"
      /></clipPath
      ><clipPath clipPathUnits="userSpaceOnUse" id="clipPath29"
      ><path d="M-0.5 -0.5 L-0.5 339.5 L489.5 339.5 L489.5 -0.5 Z"
      /></clipPath
    ></defs
    ><g stroke-dasharray="8,5" font-size="14" stroke-miterlimit="5" font-family="sans-serif" transform="translate(660.5,300.5)" stroke-linecap="butt"
    ><line y2="60" fill="none" x1="30" clip-path="url(#clipPath3)" x2="30" y1="30"
      /><line y2="90" fill="none" x1="30" clip-path="url(#clipPath3)" x2="30" y1="60"
      /><line stroke-linecap="square" clip-path="url(#clipPath3)" fill="none" x1="30" x2="36" y1="30" y2="42" stroke-dasharray="none" stroke-miterlimit="10"
      /><line stroke-linecap="square" clip-path="url(#clipPath3)" fill="none" x1="30" x2="24" y1="30" y2="42" stroke-dasharray="none" stroke-miterlimit="10"
    /></g
    ><g stroke-dasharray="8,5" font-size="14" stroke-miterlimit="5" font-family="sans-serif" transform="translate(670.5,170.5)" stroke-linecap="butt"
    ><line y2="60" fill="none" x1="130" clip-path="url(#clipPath5)" x2="130" y1="30"
      /><line y2="60" fill="none" x1="130" clip-path="url(#clipPath5)" x2="80" y1="60"
      /><line y2="60" fill="none" x1="80" clip-path="url(#clipPath5)" x2="30" y1="60"
      /><line y2="120" fill="none" x1="30" clip-path="url(#clipPath5)" x2="30" y1="60"
      /><line stroke-linecap="square" clip-path="url(#clipPath5)" fill="none" x1="130" x2="136" y1="30" y2="42" stroke-dasharray="none" stroke-miterlimit="10"
      /><line stroke-linecap="square" clip-path="url(#clipPath5)" fill="none" x1="130" x2="124" y1="30" y2="42" stroke-dasharray="none" stroke-miterlimit="10"
    /></g
    ><g font-size="14" transform="translate(740.5,140.5)" fill-opacity="0" fill="rgb(0,0,0)" font-family="sans-serif" stroke="rgb(0,0,0)" stroke-opacity="0"
    ><rect x="0" y="0" clip-path="url(#clipPath7)" width="48" opacity="0" height="20" stroke="none"
      /><rect x="0" y="20" clip-path="url(#clipPath7)" width="119" opacity="0" height="39" stroke="none"
    /></g
    ><g font-family="sans-serif" font-size="14" transform="translate(740.5,140.5)"
    ><rect fill="none" x="0" width="48" height="20" y="0" clip-path="url(#clipPath7)"
      /><rect fill="none" x="0" width="119" height="39" y="20" clip-path="url(#clipPath7)"
      /><text x="19" xml:space="preserve" y="44" clip-path="url(#clipPath7)" stroke="none"
      >jsonschema</text
    ></g
    ><g stroke-dasharray="8,5" font-size="14" stroke-miterlimit="5" font-family="sans-serif" transform="translate(640.5,510.5)" stroke-linecap="butt"
    ><line y2="110" fill="none" x1="80" clip-path="url(#clipPath9)" x2="30" y1="110"
      /><line y2="70" fill="none" x1="30" clip-path="url(#clipPath9)" x2="30" y1="110"
      /><line y2="30" fill="none" x1="30" clip-path="url(#clipPath9)" x2="30" y1="70"
      /><line stroke-linecap="square" clip-path="url(#clipPath9)" fill="none" x1="79" x2="67" y1="110" y2="116" stroke-dasharray="none" stroke-miterlimit="10"
      /><line stroke-linecap="square" clip-path="url(#clipPath9)" fill="none" x1="79" x2="67" y1="110" y2="104" stroke-dasharray="none" stroke-miterlimit="10"
    /></g
    ><g font-size="14" transform="translate(720.5,580.5)" fill-opacity="0" fill="rgb(0,0,0)" font-family="sans-serif" stroke="rgb(0,0,0)" stroke-opacity="0"
    ><rect x="0" y="0" clip-path="url(#clipPath7)" width="48" opacity="0" height="20" stroke="none"
      /><rect x="0" y="20" clip-path="url(#clipPath7)" width="119" opacity="0" height="39" stroke="none"
    /></g
    ><g font-family="sans-serif" font-size="14" transform="translate(720.5,580.5)"
    ><rect fill="none" x="0" width="48" height="20" y="0" clip-path="url(#clipPath7)"
      /><rect fill="none" x="0" width="119" height="39" y="20" clip-path="url(#clipPath7)"
      /><text x="12" xml:space="preserve" y="44" clip-path="url(#clipPath7)" stroke="none"
      >Flask-Jsonpify</text
    ></g
    ><g stroke-dasharray="8,5" font-size="14" stroke-miterlimit="5" font-family="sans-serif" transform="translate(320.5,400.5)" stroke-linecap="butt"
    ><line y2="190" fill="none" x1="30" clip-path="url(#clipPath11)" x2="30" y1="30"
      /><line y2="190" fill="none" x1="30" clip-path="url(#clipPath11)" x2="190" y1="190"
      /><line y2="190" fill="none" x1="190" clip-path="url(#clipPath11)" x2="350" y1="190"
      /><line y2="140" fill="none" x1="350" clip-path="url(#clipPath11)" x2="350" y1="190"
      /><line stroke-linecap="square" clip-path="url(#clipPath11)" fill="none" x1="30" x2="36" y1="30" y2="42" stroke-dasharray="none" stroke-miterlimit="10"
      /><line stroke-linecap="square" clip-path="url(#clipPath11)" fill="none" x1="30" x2="24" y1="30" y2="42" stroke-dasharray="none" stroke-miterlimit="10"
    /></g
    ><g stroke-dasharray="8,5" font-size="14" stroke-miterlimit="5" font-family="sans-serif" transform="translate(380.5,380.5)" stroke-linecap="butt"
    ><line y2="30" fill="none" x1="30" clip-path="url(#clipPath13)" x2="50" y1="30"
      /><line y2="30" fill="none" x1="50" clip-path="url(#clipPath13)" x2="70" y1="30"
      /><line stroke-linecap="square" clip-path="url(#clipPath13)" fill="none" x1="30" x2="42" y1="30" y2="24" stroke-dasharray="none" stroke-miterlimit="10"
      /><line stroke-linecap="square" clip-path="url(#clipPath13)" fill="none" x1="30" x2="42" y1="30" y2="36" stroke-dasharray="none" stroke-miterlimit="10"
    /></g
    ><g stroke-dasharray="8,5" font-size="14" stroke-miterlimit="5" font-family="sans-serif" transform="translate(320.5,400.5)" stroke-linecap="butt"
    ><line y2="120" fill="none" x1="30" clip-path="url(#clipPath5)" x2="30" y1="30"
      /><line y2="120" fill="none" x1="30" clip-path="url(#clipPath5)" x2="80" y1="120"
      /><line y2="120" fill="none" x1="80" clip-path="url(#clipPath5)" x2="130" y1="120"
      /><line stroke-linecap="square" clip-path="url(#clipPath5)" fill="none" x1="30" x2="36" y1="30" y2="42" stroke-dasharray="none" stroke-miterlimit="10"
      /><line stroke-linecap="square" clip-path="url(#clipPath5)" fill="none" x1="30" x2="24" y1="30" y2="42" stroke-dasharray="none" stroke-miterlimit="10"
    /></g
    ><g font-size="14" transform="translate(290.5,370.5)" fill-opacity="0" fill="rgb(0,0,0)" font-family="sans-serif" stroke="rgb(0,0,0)" stroke-opacity="0"
    ><rect x="0" y="0" clip-path="url(#clipPath7)" width="48" opacity="0" height="20" stroke="none"
      /><rect x="0" y="20" clip-path="url(#clipPath7)" width="119" opacity="0" height="39" stroke="none"
    /></g
    ><g font-family="sans-serif" font-size="14" transform="translate(290.5,370.5)"
    ><rect fill="none" x="0" width="48" height="20" y="0" clip-path="url(#clipPath7)"
      /><rect fill="none" x="0" width="119" height="39" y="20" clip-path="url(#clipPath7)"
      /><text x="43" xml:space="preserve" y="44" clip-path="url(#clipPath7)" stroke="none"
      >Flask</text
    ></g
    ><g stroke-dasharray="8,5" font-size="14" stroke-miterlimit="5" font-family="sans-serif" transform="translate(620.5,170.5)" stroke-linecap="butt"
    ><line y2="60" fill="none" x1="30" clip-path="url(#clipPath15)" x2="30" y1="30"
      /><line y2="60" fill="none" x1="30" clip-path="url(#clipPath15)" x2="55" y1="60"
      /><line y2="60" fill="none" x1="55" clip-path="url(#clipPath15)" x2="80" y1="60"
      /><line y2="120" fill="none" x1="80" clip-path="url(#clipPath15)" x2="80" y1="60"
      /><line stroke-linecap="square" clip-path="url(#clipPath15)" fill="none" x1="30" x2="36" y1="30" y2="42" stroke-dasharray="none" stroke-miterlimit="10"
      /><line stroke-linecap="square" clip-path="url(#clipPath15)" fill="none" x1="30" x2="24" y1="30" y2="42" stroke-dasharray="none" stroke-miterlimit="10"
    /></g
    ><g font-size="14" transform="translate(590.5,140.5)" fill-opacity="0" fill="rgb(0,0,0)" font-family="sans-serif" stroke="rgb(0,0,0)" stroke-opacity="0"
    ><rect x="0" y="0" clip-path="url(#clipPath7)" width="48" opacity="0" height="20" stroke="none"
      /><rect x="0" y="20" clip-path="url(#clipPath7)" width="119" opacity="0" height="39" stroke="none"
    /></g
    ><g font-family="sans-serif" font-size="14" transform="translate(590.5,140.5)"
    ><rect fill="none" x="0" width="48" height="20" y="0" clip-path="url(#clipPath7)"
      /><rect fill="none" x="0" width="119" height="39" y="20" clip-path="url(#clipPath7)"
      /><text x="30" xml:space="preserve" y="44" clip-path="url(#clipPath7)" stroke="none"
      >PyMongo</text
    ></g
    ><g stroke-dasharray="8,5" font-size="14" stroke-miterlimit="5" font-family="sans-serif" transform="translate(560.5,280.5)" stroke-linecap="butt"
    ><line y2="30" fill="none" x1="70" clip-path="url(#clipPath17)" x2="30" y1="30"
      /><line y2="190" fill="none" x1="30" clip-path="url(#clipPath17)" x2="30" y1="30"
      /><line y2="190" fill="none" x1="30" clip-path="url(#clipPath17)" x2="70" y1="190"
      /><line y2="190" fill="none" x1="70" clip-path="url(#clipPath17)" x2="110" y1="190"
      /><line y2="220" fill="none" x1="110" clip-path="url(#clipPath17)" x2="110" y1="190"
      /><line stroke-linecap="square" clip-path="url(#clipPath17)" fill="none" x1="69" x2="57" y1="30" y2="36" stroke-dasharray="none" stroke-miterlimit="10"
      /><line stroke-linecap="square" clip-path="url(#clipPath17)" fill="none" x1="69" x2="57" y1="30" y2="24" stroke-dasharray="none" stroke-miterlimit="10"
    /></g
    ><g stroke-dasharray="8,5" font-size="14" stroke-miterlimit="5" font-family="sans-serif" transform="translate(540.5,380.5)" stroke-linecap="butt"
    ><line y2="30" fill="none" x1="90" clip-path="url(#clipPath19)" x2="60" y1="30"
      /><line y2="30" fill="none" x1="60" clip-path="url(#clipPath19)" x2="30" y1="30"
      /><line stroke-linecap="square" clip-path="url(#clipPath19)" fill="none" x1="89" x2="77" y1="30" y2="36" stroke-dasharray="none" stroke-miterlimit="10"
      /><line stroke-linecap="square" clip-path="url(#clipPath19)" fill="none" x1="89" x2="77" y1="30" y2="24" stroke-dasharray="none" stroke-miterlimit="10"
    /></g
    ><g stroke-dasharray="8,5" font-size="14" stroke-miterlimit="5" font-family="sans-serif" transform="translate(820.5,300.5)" stroke-linecap="butt"
    ><line y2="60" fill="none" x1="30" clip-path="url(#clipPath3)" x2="30" y1="30"
      /><line y2="90" fill="none" x1="30" clip-path="url(#clipPath3)" x2="30" y1="60"
      /><line stroke-linecap="square" clip-path="url(#clipPath3)" fill="none" x1="30" x2="36" y1="30" y2="42" stroke-dasharray="none" stroke-miterlimit="10"
      /><line stroke-linecap="square" clip-path="url(#clipPath3)" fill="none" x1="30" x2="24" y1="30" y2="42" stroke-dasharray="none" stroke-miterlimit="10"
    /></g
    ><g stroke-dasharray="8,5" font-size="14" stroke-miterlimit="5" font-family="sans-serif" transform="translate(640.5,400.5)" stroke-linecap="butt"
    ><line y2="70" fill="none" x1="200" clip-path="url(#clipPath21)" x2="200" y1="30"
      /><line y2="70" fill="none" x1="200" clip-path="url(#clipPath21)" x2="115" y1="70"
      /><line y2="70" fill="none" x1="115" clip-path="url(#clipPath21)" x2="30" y1="70"
      /><line y2="100" fill="none" x1="30" clip-path="url(#clipPath21)" x2="30" y1="70"
      /><line stroke-linecap="square" clip-path="url(#clipPath21)" fill="none" x1="200" x2="206" y1="30" y2="42" stroke-dasharray="none" stroke-miterlimit="10"
      /><line stroke-linecap="square" clip-path="url(#clipPath21)" fill="none" x1="200" x2="194" y1="30" y2="42" stroke-dasharray="none" stroke-miterlimit="10"
    /></g
    ><g stroke-dasharray="8,5" font-size="14" stroke-miterlimit="5" font-family="sans-serif" transform="translate(640.5,400.5)" stroke-linecap="butt"
    ><line y2="70" fill="none" x1="50" clip-path="url(#clipPath23)" x2="50" y1="30"
      /><line y2="70" fill="none" x1="50" clip-path="url(#clipPath23)" x2="40" y1="70"
      /><line y2="70" fill="none" x1="40" clip-path="url(#clipPath23)" x2="30" y1="70"
      /><line y2="100" fill="none" x1="30" clip-path="url(#clipPath23)" x2="30" y1="70"
      /><line stroke-linecap="square" clip-path="url(#clipPath23)" fill="none" x1="50" x2="56" y1="30" y2="42" stroke-dasharray="none" stroke-miterlimit="10"
      /><line stroke-linecap="square" clip-path="url(#clipPath23)" fill="none" x1="50" x2="44" y1="30" y2="42" stroke-dasharray="none" stroke-miterlimit="10"
    /></g
    ><g stroke-dasharray="8,5" font-size="14" stroke-miterlimit="5" font-family="sans-serif" transform="translate(480.5,400.5)" stroke-linecap="butt"
    ><line y2="65" fill="none" x1="30" clip-path="url(#clipPath25)" x2="30" y1="30"
      /><line y2="100" fill="none" x1="30" clip-path="url(#clipPath25)" x2="30" y1="65"
      /><line stroke-linecap="square" clip-path="url(#clipPath25)" fill="none" x1="30" x2="36" y1="30" y2="42" stroke-dasharray="none" stroke-miterlimit="10"
      /><line stroke-linecap="square" clip-path="url(#clipPath25)" fill="none" x1="30" x2="24" y1="30" y2="42" stroke-dasharray="none" stroke-miterlimit="10"
    /></g
    ><g stroke-dasharray="8,5" font-size="14" stroke-miterlimit="5" font-family="sans-serif" transform="translate(480.5,300.5)" stroke-linecap="butt"
    ><line y2="60" fill="none" x1="210" clip-path="url(#clipPath27)" x2="210" y1="30"
      /><line y2="60" fill="none" x1="210" clip-path="url(#clipPath27)" x2="120" y1="60"
      /><line y2="60" fill="none" x1="120" clip-path="url(#clipPath27)" x2="30" y1="60"
      /><line y2="90" fill="none" x1="30" clip-path="url(#clipPath27)" x2="30" y1="60"
      /><line stroke-linecap="square" clip-path="url(#clipPath27)" fill="none" x1="210" x2="216" y1="30" y2="42" stroke-dasharray="none" stroke-miterlimit="10"
      /><line stroke-linecap="square" clip-path="url(#clipPath27)" fill="none" x1="210" x2="204" y1="30" y2="42" stroke-dasharray="none" stroke-miterlimit="10"
    /></g
    ><g stroke-dasharray="8,5" font-size="14" stroke-miterlimit="5" font-family="sans-serif" transform="translate(480.5,300.5)" stroke-linecap="butt"
    ><line y2="60" fill="none" x1="30" clip-path="url(#clipPath3)" x2="30" y1="30"
      /><line y2="90" fill="none" x1="30" clip-path="url(#clipPath3)" x2="30" y1="60"
      /><line stroke-linecap="square" clip-path="url(#clipPath3)" fill="none" x1="30" x2="36" y1="30" y2="42" stroke-dasharray="none" stroke-miterlimit="10"
      /><line stroke-linecap="square" clip-path="url(#clipPath3)" fill="none" x1="30" x2="24" y1="30" y2="42" stroke-dasharray="none" stroke-miterlimit="10"
    /></g
    ><g font-size="14" transform="translate(630.5,270.5)" fill-opacity="0" fill="rgb(0,0,0)" font-family="sans-serif" stroke="rgb(0,0,0)" stroke-opacity="0"
    ><rect x="0" y="0" clip-path="url(#clipPath7)" width="48" opacity="0" height="20" stroke="none"
      /><rect x="0" y="20" clip-path="url(#clipPath7)" width="119" opacity="0" height="39" stroke="none"
    /></g
    ><g font-family="sans-serif" font-size="14" transform="translate(630.5,270.5)"
    ><rect fill="none" x="0" width="48" height="20" y="0" clip-path="url(#clipPath7)"
      /><rect fill="none" x="0" width="119" height="39" y="20" clip-path="url(#clipPath7)"
      /><text x="28" xml:space="preserve" y="44" clip-path="url(#clipPath7)" stroke="none"
      >mongodb</text
    ></g
    ><g font-size="14" transform="translate(630.5,370.5)" fill-opacity="0" fill="rgb(0,0,0)" font-family="sans-serif" stroke="rgb(0,0,0)" stroke-opacity="0"
    ><rect x="0" y="0" clip-path="url(#clipPath7)" width="48" opacity="0" height="20" stroke="none"
      /><rect x="0" y="20" clip-path="url(#clipPath7)" width="119" opacity="0" height="39" stroke="none"
    /></g
    ><g font-family="sans-serif" font-size="14" transform="translate(630.5,370.5)"
    ><rect fill="none" x="0" width="48" height="20" y="0" clip-path="url(#clipPath7)"
      /><rect fill="none" x="0" width="119" height="39" y="20" clip-path="url(#clipPath7)"
      /><text x="36" xml:space="preserve" y="44" clip-path="url(#clipPath7)" stroke="none"
      >models</text
    ></g
    ><g font-size="14" transform="translate(450.5,270.5)" fill-opacity="0" fill="rgb(0,0,0)" font-family="sans-serif" stroke="rgb(0,0,0)" stroke-opacity="0"
    ><rect x="0" y="0" clip-path="url(#clipPath7)" width="48" opacity="0" height="20" stroke="none"
      /><rect x="0" y="20" clip-path="url(#clipPath7)" width="119" opacity="0" height="39" stroke="none"
    /></g
    ><g font-family="sans-serif" font-size="14" transform="translate(450.5,270.5)"
    ><rect fill="none" x="0" width="48" height="20" y="0" clip-path="url(#clipPath7)"
      /><rect fill="none" x="0" width="119" height="39" y="20" clip-path="url(#clipPath7)"
      /><text x="45" xml:space="preserve" y="44" clip-path="url(#clipPath7)" stroke="none"
      >json</text
    ></g
    ><g font-size="14" transform="translate(450.5,480.5)" fill-opacity="0" fill="rgb(0,0,0)" font-family="sans-serif" stroke="rgb(0,0,0)" stroke-opacity="0"
    ><rect x="0" y="0" clip-path="url(#clipPath7)" width="48" opacity="0" height="20" stroke="none"
      /><rect x="0" y="20" clip-path="url(#clipPath7)" width="119" opacity="0" height="39" stroke="none"
    /></g
    ><g font-family="sans-serif" font-size="14" transform="translate(450.5,480.5)"
    ><rect fill="none" x="0" width="48" height="20" y="0" clip-path="url(#clipPath7)"
      /><rect fill="none" x="0" width="119" height="39" y="20" clip-path="url(#clipPath7)"
      /><text x="34" xml:space="preserve" y="44" clip-path="url(#clipPath7)" stroke="none"
      >content</text
    ></g
    ><g font-size="14" transform="translate(450.5,370.5)" fill-opacity="0" fill="rgb(0,0,0)" font-family="sans-serif" stroke="rgb(0,0,0)" stroke-opacity="0"
    ><rect x="0" y="0" clip-path="url(#clipPath7)" width="48" opacity="0" height="20" stroke="none"
      /><rect x="0" y="20" clip-path="url(#clipPath7)" width="119" opacity="0" height="39" stroke="none"
    /></g
    ><g font-family="sans-serif" font-size="14" transform="translate(450.5,370.5)"
    ><rect fill="none" x="0" width="48" height="20" y="0" clip-path="url(#clipPath7)"
      /><rect fill="none" x="0" width="119" height="39" y="20" clip-path="url(#clipPath7)"
      /><text x="35" xml:space="preserve" y="44" clip-path="url(#clipPath7)" stroke="none"
      > __init__ </text
    ></g
    ><g font-size="14" transform="translate(600.5,480.5)" fill-opacity="0" fill="rgb(0,0,0)" font-family="sans-serif" stroke="rgb(0,0,0)" stroke-opacity="0"
    ><rect x="0" y="0" clip-path="url(#clipPath7)" width="48" opacity="0" height="20" stroke="none"
      /><rect x="0" y="20" clip-path="url(#clipPath7)" width="119" opacity="0" height="39" stroke="none"
    /></g
    ><g font-family="sans-serif" font-size="14" transform="translate(600.5,480.5)"
    ><rect fill="none" x="0" width="48" height="20" y="0" clip-path="url(#clipPath7)"
      /><rect fill="none" x="0" width="119" height="39" y="20" clip-path="url(#clipPath7)"
      /><text x="50" xml:space="preserve" y="44" clip-path="url(#clipPath7)" stroke="none"
      >api</text
    ></g
    ><g font-size="14" transform="translate(780.5,370.5)" fill-opacity="0" fill="rgb(0,0,0)" font-family="sans-serif" stroke="rgb(0,0,0)" stroke-opacity="0"
    ><rect x="0" y="0" clip-path="url(#clipPath7)" width="48" opacity="0" height="20" stroke="none"
      /><rect x="0" y="20" clip-path="url(#clipPath7)" width="119" opacity="0" height="39" stroke="none"
    /></g
    ><g font-family="sans-serif" font-size="14" transform="translate(780.5,370.5)"
    ><rect fill="none" x="0" width="48" height="20" y="0" clip-path="url(#clipPath7)"
      /><rect fill="none" x="0" width="119" height="39" y="20" clip-path="url(#clipPath7)"
      /><text x="38" xml:space="preserve" y="44" clip-path="url(#clipPath7)" stroke="none"
      >alarms</text
    ></g
    ><g font-size="14" transform="translate(780.5,270.5)" fill-opacity="0" fill="rgb(0,0,0)" font-family="sans-serif" stroke="rgb(0,0,0)" stroke-opacity="0"
    ><rect x="0" y="0" clip-path="url(#clipPath7)" width="48" opacity="0" height="20" stroke="none"
      /><rect x="0" y="20" clip-path="url(#clipPath7)" width="119" opacity="0" height="39" stroke="none"
    /></g
    ><g font-family="sans-serif" font-size="14" transform="translate(780.5,270.5)"
    ><rect fill="none" x="0" width="48" height="20" y="0" clip-path="url(#clipPath7)"
      /><rect fill="none" x="0" width="119" height="39" y="20" clip-path="url(#clipPath7)"
      /><text x="8" xml:space="preserve" y="44" clip-path="url(#clipPath7)" stroke="none"
      >alarm_handlers</text
    ></g
    ><g font-size="14" transform="translate(430.5,230.5)" fill-opacity="0" fill="rgb(0,0,0)" font-family="sans-serif" stroke="rgb(0,0,0)" stroke-opacity="0"
    ><rect x="0" y="0" clip-path="url(#clipPath29)" width="196" opacity="0" height="20" stroke="none"
      /><rect x="0" y="20" clip-path="url(#clipPath29)" width="489" opacity="0" height="319" stroke="none"
    /></g
    ><g font-family="sans-serif" font-size="14" transform="translate(430.5,230.5)"
    ><rect fill="none" x="0" width="196" height="20" y="0" clip-path="url(#clipPath29)"
      /><rect fill="none" x="0" width="489" height="319" y="20" clip-path="url(#clipPath29)"
      /><text x="7" xml:space="preserve" y="17" clip-path="url(#clipPath29)" stroke="none"
      >roac_aggregator</text
    ></g
  ></g
></svg
>
